<?xml version="1.0" standalone="no"?>
<!DOCTYPE svg PUBLIC "-//W3C//DTD SVG 20010904//EN"
 "http://www.w3.org/TR/2001/REC-SVG-20010904/DTD/svg10.dtd">
<svg version="1.0" xmlns="http://www.w3.org/2000/svg"
 width="512.000000pt" height="512.000000pt" viewBox="0 0 512.000000 512.000000"
 preserveAspectRatio="xMidYMid meet">
<metadata>
Created by potrace 1.11, written by Peter Selinger 2001-2013
</metadata>
<g transform="translate(0.000000,512.000000) scale(0.100000,-0.100000)"
fill="#000000" stroke="none">
<path d="M5 4503 c2 -10 11 -47 20 -83 9 -36 23 -92 31 -125 8 -33 16 -67 18
-75 4 -14 144 -570 188 -745 11 -44 21 -87 23 -95 2 -8 11 -44 20 -80 9 -36
18 -72 20 -80 2 -8 11 -44 20 -80 9 -36 19 -76 22 -89 2 -14 6 -28 9 -32 2 -4
8 -27 13 -51 5 -24 28 -117 51 -208 23 -91 43 -172 45 -180 2 -8 16 -67 33
-130 16 -63 32 -126 35 -140 3 -14 24 -99 47 -190 23 -91 43 -172 45 -180 2
-8 11 -44 20 -80 9 -36 19 -73 21 -83 2 -9 6 -26 9 -37 3 -11 7 -29 10 -40 3
-11 7 -28 9 -38 3 -9 23 -91 46 -182 23 -91 43 -172 45 -180 2 -8 11 -44 20
-80 9 -36 19 -75 21 -87 2 -12 9 -34 14 -48 5 -14 7 -25 5 -25 -2 0 0 -12 6
-27 6 -16 19 -64 29 -108 10 -44 28 -118 40 -165 24 -93 28 -111 29 -122 1 -5
116 -8 257 -8 239 0 255 1 250 18 -3 9 -31 116 -62 237 -31 121 -60 236 -65
255 -6 19 -12 49 -15 65 -3 17 -9 41 -14 55 -7 21 -106 407 -115 450 -2 8 -22
87 -45 175 -43 166 -59 229 -65 255 -2 8 -8 35 -15 60 -7 25 -14 52 -15 60 -4
14 -36 142 -131 510 -47 179 -51 197 -58 228 -2 10 -9 39 -16 63 -6 24 -16 60
-21 79 -26 100 -130 508 -134 525 -2 11 -15 65 -30 120 -15 55 -28 108 -30
118 -2 10 -7 27 -10 37 -3 10 -8 27 -10 37 -2 10 -33 133 -69 274 -36 142 -66
260 -66 263 0 3 -110 6 -244 6 -228 0 -245 -1 -241 -17z"/>
<path d="M1874 4498 c2 -13 10 -43 17 -68 7 -25 13 -50 15 -56 1 -6 12 -51 24
-100 12 -49 23 -96 25 -104 2 -8 65 -258 140 -555 74 -297 137 -549 140 -560
2 -11 36 -146 75 -300 39 -154 72 -289 75 -300 2 -11 49 -200 105 -420 56
-220 103 -409 106 -420 2 -11 29 -119 59 -240 31 -121 58 -228 61 -238 8 -34
15 -62 19 -82 3 -11 27 -109 55 -219 27 -109 50 -200 50 -202 0 -2 114 -4 254
-4 238 0 255 1 251 17 -17 72 -86 336 -89 342 -3 4 -7 19 -10 33 -2 15 -28
118 -56 230 -29 112 -54 212 -56 222 -2 10 -8 33 -13 50 -6 17 -13 42 -15 56
-3 14 -19 79 -36 145 -17 66 -33 128 -35 137 -2 10 -18 71 -35 135 -18 65 -33
125 -35 134 -5 24 -94 376 -112 439 -8 30 -18 71 -23 90 -13 61 -32 134 -37
150 -3 8 -7 22 -9 30 -5 32 -145 573 -149 580 -2 4 -7 20 -9 36 -7 38 -11 54
-37 149 -11 44 -22 87 -24 95 -2 8 -17 69 -35 135 -17 66 -33 129 -35 141 -3
11 -16 65 -30 120 -15 54 -44 172 -67 262 l-41 162 -244 0 -243 0 4 -22z"/>
<path d="M3646 4503 c2 -10 11 -47 20 -83 9 -36 17 -72 19 -80 2 -8 16 -67 33
-130 16 -63 32 -126 35 -140 3 -14 13 -54 22 -90 9 -36 18 -72 20 -80 2 -8 13
-53 25 -100 12 -47 23 -92 25 -100 2 -8 15 -61 29 -116 15 -56 29 -111 31
-124 2 -12 7 -30 10 -40 3 -10 7 -27 9 -37 2 -10 9 -38 16 -63 7 -25 14 -53
16 -62 2 -10 6 -26 9 -35 7 -30 36 -147 40 -163 2 -8 11 -44 20 -80 9 -36 18
-72 20 -80 2 -8 11 -44 20 -80 9 -36 19 -74 22 -85 7 -31 9 -38 16 -60 3 -11
8 -31 11 -45 3 -14 21 -88 41 -165 19 -77 37 -149 40 -160 2 -11 11 -49 20
-85 9 -36 18 -72 20 -80 2 -8 29 -114 60 -235 31 -121 57 -229 59 -241 2 -11
6 -25 9 -31 3 -5 9 -25 12 -43 3 -18 17 -76 31 -129 14 -53 27 -105 29 -116 1
-11 5 -27 9 -35 3 -8 8 -26 10 -40 3 -14 21 -88 41 -165 43 -170 40 -155 60
-240 23 -96 23 -96 34 -133 5 -18 10 -35 11 -37 0 -3 3 -18 6 -35 l7 -30 254
0 c238 0 254 1 249 18 -7 24 -107 414 -111 432 -2 8 -11 44 -20 80 -9 36 -19
72 -20 80 -2 8 -32 123 -65 255 -34 132 -64 248 -66 258 -2 10 -6 27 -9 37 -3
10 -8 27 -10 37 -2 10 -13 54 -25 98 -22 84 -27 104 -34 133 -2 9 -12 46 -21
82 -9 36 -19 72 -20 80 -2 8 -4 15 -5 15 -1 0 -3 7 -5 16 -3 17 -98 392 -155
614 -37 141 -70 274 -75 295 -1 8 -8 35 -15 60 -7 25 -14 52 -16 60 -2 8 -49
193 -104 410 -56 217 -103 403 -105 413 -2 10 -7 27 -10 37 -3 10 -8 27 -10
37 -2 10 -22 89 -44 175 -23 86 -41 159 -41 162 0 3 -110 6 -244 6 -227 0
-244 -1 -240 -17z"/>
<path d="M2835 4113 c6 -15 40 -145 50 -193 1 -8 8 -35 15 -60 7 -25 13 -52
15 -60 2 -8 8 -35 15 -60 7 -25 14 -52 15 -60 2 -8 4 -15 5 -15 1 0 3 -9 5
-20 4 -23 7 -37 30 -120 9 -33 20 -78 25 -100 5 -22 14 -60 20 -85 7 -25 13
-52 15 -60 2 -8 11 -42 20 -75 9 -33 20 -78 25 -100 5 -22 14 -60 20 -85 7
-25 14 -56 16 -69 3 -14 7 -28 10 -32 2 -4 8 -27 13 -51 5 -24 21 -90 36 -148
28 -110 28 -111 45 -175 5 -22 19 -76 29 -120 11 -44 26 -105 34 -135 8 -30
17 -66 20 -80 l6 -25 247 0 c171 0 248 3 251 11 2 6 -10 65 -28 130 -17 65
-33 126 -35 134 -2 8 -11 42 -19 75 -9 33 -17 67 -19 75 -2 8 -16 60 -31 115
-15 55 -31 116 -35 135 -5 19 -27 107 -50 195 -23 88 -44 167 -46 175 -2 8
-19 76 -39 150 -20 74 -38 142 -40 150 -1 8 -20 78 -40 155 -20 77 -41 156
-45 175 -5 19 -22 87 -38 150 l-30 115 -247 3 c-233 2 -247 1 -240 -15z"/>
<path d="M1273 2957 c-2 -4 6 -46 18 -94 12 -48 23 -94 24 -103 2 -8 4 -15 5
-15 1 0 3 -7 5 -15 2 -8 12 -53 24 -100 12 -47 23 -94 26 -105 2 -11 18 -74
35 -140 18 -66 34 -128 35 -138 2 -9 11 -45 20 -80 9 -34 18 -71 21 -82 7 -35
12 -57 54 -220 23 -88 43 -171 46 -185 3 -14 9 -39 15 -56 5 -17 11 -40 13
-50 2 -10 21 -84 41 -164 20 -80 38 -153 40 -163 2 -9 11 -45 20 -80 9 -34 18
-69 20 -77 15 -68 16 -70 54 -71 76 -1 465 2 467 4 1 1 -25 103 -57 226 -33
124 -61 234 -64 245 -2 12 -4 21 -5 21 -1 0 -3 7 -5 15 -1 8 -8 35 -15 60 -7
25 -14 52 -15 60 -2 8 -11 42 -20 75 -9 33 -21 76 -25 95 -4 19 -18 71 -30
115 -34 128 -102 388 -105 405 -5 23 -113 439 -129 495 -8 28 -17 65 -21 82
-4 18 -12 36 -18 40 -16 10 -468 10 -474 0z"/>
</g>
</svg>
